{
	"_id" : "601ccbe89bcd482ee8fa2c99",
	"orderID" : "6062a8eb834de22e84600edd",
	"productID" : "601xxbe89bcd482zz8fa2c99",
	"price" : 1000,
	"quantity" : 1,
	"subTotal" : 1000,
	"dateTimeCreated" : "2020-03-15T15:00:00.00Z"


}

{
	"_id" : "601ccbe89bcd482ee8fa2c99",
	"orderID" : "6062a8eb834de22e84600edd",
	"productID" : "601xxbe89bcd482zz8fa2c88",
	"price" : 4000,
	"quantity" : 1,
	"subTotal" : 4000,
	"dateTimeCreated" : "2020-03-15T15:00:00.00Z"


}
