{
	"_id" : "601ccbe89bcd482ee8fa2c99",
	"name" : "RAIGOR II WG10",
	"description" : "WIRELESS 2.4GHZ PRO-GAMING MOUSE",
	"price" : 1000,
	"isActive" : true,
	"stocks" : 20,
	"SKU" : "WG10",
	"dateTimeCreated" : "2020-03-15T15:00:00.00Z"


}

{
	"_id" : "507f191e810c19729de860ea",
	"name" : "ATOM96 MK890",
	"description" : "RGB MECHANICAL KEYBOARD",
	"price" : 2000,
	"isActive" : false,
	"stocks" : 0,
	"SKU" : "MK890",
	"dateTimeCreated" : "2020-03-15T15:00:00.00Z"


}

{
	"_id" : "601ccc169bcd482ee8fa2c9a",
	"name" : "VALOR MH86",
	"description" : "MULTI PLATFORM GAMING HEADSET",
	"price" : 4000,
	"isActive" : true,
	"stocks" : 15,
	"SKU" : "MH86",
	"dateTimeCreated" : "2020-03-15T15:00:00.00Z"


}