{
	"info": {
		"_postman_id": "0d257b15-713f-46fd-a2a6-813e1df569bc",
		"name": "s33",
		"schema": "https://schema.getpostman.com/json/collection/v2.1.0/collection.json",
		"_exporter_id": "27279249"
	},
	"item": [
		{
			"name": "REST API Intro",
			"item": [
				{
					"name": "retrieve all posts",
					"request": {
						"method": "GET",
						"header": []
					},
					"response": []
				},
				{
					"name": "create post",
					"request": {
						"method": "POST",
						"header": [],
						"body": {
							"mode": "raw",
							"raw": "{\r\n    \"title\": \"My First Blog Post\",\r\n    \"body\": \"Hello! It's me.\",\r\n    \"id\":101\r\n}",
							"options": {
								"raw": {
									"language": "json"
								}
							}
						},
						"url": {
							"raw": "https://jsonplaceholder.typicode.com/posts",
							"protocol": "https",
							"host": [
								"jsonplaceholder",
								"typicode",
								"com"
							],
							"path": [
								"posts"
							]
						}
					},
					"response": []
				},
				{
					"name": "update post",
					"request": {
						"method": "PUT",
						"header": [],
						"body": {
							"mode": "raw",
							"raw": "{\r\n    \"title\":\"My First Revised Blog Post.\",\r\n    \"body\":\"All my life I've been good.\"\r\n}",
							"options": {
								"raw": {
									"language": "json"
								}
							}
						},
						"url": {
							"raw": "https://jsonplaceholder.typicode.com/posts/98",
							"protocol": "https",
							"host": [
								"jsonplaceholder",
								"typicode",
								"com"
							],
							"path": [
								"posts",
								"98"
							]
						}
					},
					"response": []
				},
				{
					"name": "update post body",
					"request": {
						"method": "PATCH",
						"header": [],
						"body": {
							"mode": "raw",
							"raw": "{\r\n    \"body\":\"Di ko maintindihan. Ang nilalaman ng puso\"\r\n}",
							"options": {
								"raw": {
									"language": "json"
								}
							}
						},
						"url": {
							"raw": "https://jsonplaceholder.typicode.com/posts/98",
							"protocol": "https",
							"host": [
								"jsonplaceholder",
								"typicode",
								"com"
							],
							"path": [
								"posts",
								"98"
							]
						}
					},
					"response": []
				},
				{
					"name": "delete post",
					"request": {
						"method": "DELETE",
						"header": [],
						"url": {
							"raw": "https://jsonplaceholder.typicode.com/posts/98",
							"protocol": "https",
							"host": [
								"jsonplaceholder",
								"typicode",
								"com"
							],
							"path": [
								"posts",
								"98"
							]
						}
					},
					"response": []
				}
			]
		}
	]
}